"<div id=""category""></div> <div id=""tags"" style=""visibility:hidden;"">nvim</div> neovim uses ____ to implement features whose behavior may depend on the system and environment, such as clipboard support.  <script>   var tagInnerHTML = document.getElementById(""tags"").innerHTML;    var tags = tagInnerHTML.split("" "");    for (var i = 0; i < tags.length; i++) {     const tag = tags[i];     var height = 70;          var imgMappings = {       bash: {         imgSrc: ""_Gnu-bash-logo.svg.png""       },       vim: {         imgSrc: ""_Vimlogo.svg""       },       nvim: {         imgSrc: ""_nvim.jpeg""       }     }      var imgSrc = imgMappings[tag].imgSrc;     if (typeof imgSrc !== undefined) {        document.getElementById(""category"").innerHTML =         '<img src\=""' +         imgSrc +         '""/ height=""' +         height +         '"" />';       break;     }   }  </script>"	providers.<div><br /></div><div>neovim adds this support at run-time, whereas vim adds this support at compile-time</div>
"<div id=""category""></div> <div id=""tags"" style=""visibility:hidden;"">nvim</div> neovim-remote is...  <script>   var tagInnerHTML = document.getElementById(""tags"").innerHTML;    var tags = tagInnerHTML.split("" "");    for (var i = 0; i < tags.length; i++) {     const tag = tags[i];     var height = 70;          var imgMappings = {       bash: {         imgSrc: ""_Gnu-bash-logo.svg.png""       },       vim: {         imgSrc: ""_Vimlogo.svg""       },       nvim: {         imgSrc: ""_nvim.jpeg""       }     }      var imgSrc = imgMappings[tag].imgSrc;     if (typeof imgSrc !== undefined) {        document.getElementById(""category"").innerHTML =         '<img src\=""' +         imgSrc +         '""/ height=""' +         height +         '"" />';       break;     }   }  </script>"	a tool that lets you control Neovim processes remotely.
"<div id=""category""></div> <div id=""tags"" style=""visibility:hidden;"">vim</div> What are packages, plugins, and scripts?  <script>   var tagInnerHTML = document.getElementById(""tags"").innerHTML;    var tags = tagInnerHTML.split("" "");    for (var i = 0; i < tags.length; i++) {     const tag = tags[i];     var height = 70;          var imgMappings = {       bash: {         imgSrc: ""_Gnu-bash-logo.svg.png""       },       vim: {         imgSrc: ""_Vimlogo.svg""       },       nvim: {         imgSrc: ""_nvim.jpeg""       }     }      var imgSrc = imgMappings[tag].imgSrc;     if (typeof imgSrc !== undefined) {        document.getElementById(""category"").innerHTML =         '<img src\=""' +         imgSrc +         '""/ height=""' +         height +         '"" />';       break;     }   }  </script>"	- A package is a directory that contains one or more plugins.&nbsp;<div>- A plugin is a directory that contains one or more scripts</div><div>- A script is a standalone file containing instructions written in Vim script.</div>
"<div id=""category""></div> <div id=""tags"" style=""visibility:hidden;"">vim</div> A basic plugin has the structure...  <script>   var tagInnerHTML = document.getElementById(""tags"").innerHTML;    var tags = tagInnerHTML.split("" "");    for (var i = 0; i < tags.length; i++) {     const tag = tags[i];     var height = 70;          var imgMappings = {       bash: {         imgSrc: ""_Gnu-bash-logo.svg.png""       },       vim: {         imgSrc: ""_Vimlogo.svg""       },       nvim: {         imgSrc: ""_nvim.jpeg""       }     }      var imgSrc = imgMappings[tag].imgSrc;     if (typeof imgSrc !== undefined) {        document.getElementById(""category"").innerHTML =         '<img src\=""' +         imgSrc +         '""/ height=""' +         height +         '"" />';       break;     }   }  </script>"	"<img src=""paste-13864154431660.jpg"" />"
"<div id=""category""></div> <div id=""tags"" style=""visibility:hidden;"">vim</div> If you wanted to add a plugin manually (not necessarily recommended) you'd have to do something like...  <script>   var tagInnerHTML = document.getElementById(""tags"").innerHTML;    var tags = tagInnerHTML.split("" "");    for (var i = 0; i < tags.length; i++) {     const tag = tags[i];     var height = 70;          var imgMappings = {       bash: {         imgSrc: ""_Gnu-bash-logo.svg.png""       },       vim: {         imgSrc: ""_Vimlogo.svg""       },       nvim: {         imgSrc: ""_nvim.jpeg""       }     }      var imgSrc = imgMappings[tag].imgSrc;     if (typeof imgSrc !== undefined) {        document.getElementById(""category"").innerHTML =         '<img src\=""' +         imgSrc +         '""/ height=""' +         height +         '"" />';       break;     }   }  </script>"	"<div class=""codehilite"" style=""background: #f8f8f8"" align=""left""><pre style=""line-height: 125%""><span style=""color: #000000;font-weight: bold"">:</span><span style=""color: #204a87; font-weight: bold"">set</span> <span style=""color: #204a87"">runtimepath</span><span style=""color: #000000; font-weight: bold"">+=</span>$VIMCONFIG<span style=""color: #4e9a06"">/arbitrary/</span>demo<span style=""color: #000000; font-weight: bold"">-</span>plugin </pre></div> <p>However, using packages or a plugin manager is better practice.</p><!----SBAdata:eyJpc2NvbnZlcnRlZCI6ICJUcnVlIiwgImxhc3Rtb2RpZmllZCI6IDE1Njg5OTgwODIsICJpZCI6ICIxNTY4OTk3OTcwMTMwLTAwMSIsICJtZCI6ICJgYGB2aW1cbjpzZXQgcnVudGltZXBhdGgrPSRWSU1DT05GSUcvYXJiaXRyYXJ5L2RlbW8tcGx1Z2luXG5gYGBcbiAgXG5Ib3dldmVyLCB1c2luZyBwYWNrYWdlcyBvciBhIHBsdWdpbiBtYW5hZ2VyIGlzIGJldHRlciBwcmFjdGljZS5cbiJ9---->"
"<div id=""category""></div> <div id=""tags"" style=""visibility:hidden;"">nvim</div> By convention, you create custom packages within the ___ directory.  <script>   var tagInnerHTML = document.getElementById(""tags"").innerHTML;    var tags = tagInnerHTML.split("" "");    for (var i = 0; i < tags.length; i++) {     const tag = tags[i];     var height = 70;          var imgMappings = {       bash: {         imgSrc: ""_Gnu-bash-logo.svg.png""       },       vim: {         imgSrc: ""_Vimlogo.svg""       },       nvim: {         imgSrc: ""_nvim.jpeg""       }     }      var imgSrc = imgMappings[tag].imgSrc;     if (typeof imgSrc !== undefined) {        document.getElementById(""category"").innerHTML =         '<img src\=""' +         imgSrc +         '""/ height=""' +         height +         '"" />';       break;     }   }  </script>"	<p><code>$VIMCONFIG/pack</code> directory</p> <p>for neovim, this is:<br /> <code>~/.config/nvim/pack</code></p><!----SBAdata:eyJpc2NvbnZlcnRlZCI6ICJUcnVlIiwgImxhc3Rtb2RpZmllZCI6IDE1Njg5OTgxNjUsICJpZCI6ICIxNTY4OTk4MDgyOTU5LTAwMSIsICJtZCI6ICJgJFZJTUNPTkZJRy9wYWNrYCBkaXJlY3RvcnlcbiAgXG5mb3IgbmVvdmltLCB0aGlzIGlzOlxuYH4vLmNvbmZpZy9udmltL3BhY2tgXG4ifQ==---->
"<div id=""category""></div> <div id=""tags"" style=""visibility:hidden;"">vim</div> When Vim launches, it searches for plugins under the ___ directory, and adds them to the runtimepath, then sources any vim scrippt files contained within  <script>   var tagInnerHTML = document.getElementById(""tags"").innerHTML;    var tags = tagInnerHTML.split("" "");    for (var i = 0; i < tags.length; i++) {     const tag = tags[i];     var height = 70;          var imgMappings = {       bash: {         imgSrc: ""_Gnu-bash-logo.svg.png""       },       vim: {         imgSrc: ""_Vimlogo.svg""       },       nvim: {         imgSrc: ""_nvim.jpeg""       }     }      var imgSrc = imgMappings[tag].imgSrc;     if (typeof imgSrc !== undefined) {        document.getElementById(""category"").innerHTML =         '<img src\=""' +         imgSrc +         '""/ height=""' +         height +         '"" />';       break;     }   }  </script>"	"<div class=""codehilite"" style=""background: #f8f8f8"" align=""left""><pre style=""line-height: 125%""><span style=""color: #000000"">$VIMCONFIG</span>/pack/*/start </pre></div> <p>e.g. for neovim:</p> <div class=""codehilite"" style=""background: #f8f8f8"" align=""left""><pre style=""line-height: 125%"">~/.config/nvim/pack/*/start </pre></div><!----SBAdata:eyJpc2NvbnZlcnRlZCI6ICJUcnVlIiwgImxhc3Rtb2RpZmllZCI6IDE1Njg5OTgyNTUsICJpZCI6ICIxNTY4OTk4MTc3MTg0LTAwMSIsICJtZCI6ICJgYGBiYXNoXG4kVklNQ09ORklHL3BhY2svKi9zdGFydFxuYGBgXG4gIFxuZS5nLiBmb3IgbmVvdmltOlxuYGBgYmFzaFxufi8uY29uZmlnL252aW0vcGFjay8qL3N0YXJ0XG5gYGBcbiJ9---->"
"<div id=""category""></div> <div id=""tags"" style=""visibility:hidden;"">vim</div> Once you manually install a plugin, to index the documentation, run  <script>   var tagInnerHTML = document.getElementById(""tags"").innerHTML;    var tags = tagInnerHTML.split("" "");    for (var i = 0; i < tags.length; i++) {     const tag = tags[i];     var height = 70;          var imgMappings = {       bash: {         imgSrc: ""_Gnu-bash-logo.svg.png""       },       vim: {         imgSrc: ""_Vimlogo.svg""       },       nvim: {         imgSrc: ""_nvim.jpeg""       }     }      var imgSrc = imgMappings[tag].imgSrc;     if (typeof imgSrc !== undefined) {        document.getElementById(""category"").innerHTML =         '<img src\=""' +         imgSrc +         '""/ height=""' +         height +         '"" />';       break;     }   }  </script>"	<b>:helptags ALL</b>
"<div id=""category""></div> <div id=""tags"" style=""visibility:hidden;"">vim</div> Next to the start/ folder, add an opt/ folder for...  <script>   var tagInnerHTML = document.getElementById(""tags"").innerHTML;    var tags = tagInnerHTML.split("" "");    for (var i = 0; i < tags.length; i++) {     const tag = tags[i];     var height = 70;          var imgMappings = {       bash: {         imgSrc: ""_Gnu-bash-logo.svg.png""       },       vim: {         imgSrc: ""_Vimlogo.svg""       },       nvim: {         imgSrc: ""_nvim.jpeg""       }     }      var imgSrc = imgMappings[tag].imgSrc;     if (typeof imgSrc !== undefined) {        document.getElementById(""category"").innerHTML =         '<img src\=""' +         imgSrc +         '""/ height=""' +         height +         '"" />';       break;     }   }  </script>"	"<p>holding plugins that should not be automatically added to the runtimepath.</p> <p>To add them, run</p> <div class=""codehilite"" style=""background: #f8f8f8"" align=""left""><pre style=""line-height: 125%""><span style=""color: #000000;font-weight: bold"">:</span>packadd {some package} </pre></div><!----SBAdata:eyJpc2NvbnZlcnRlZCI6ICJUcnVlIiwgImxhc3Rtb2RpZmllZCI6IDE1Njg5OTg5MjUsICJpZCI6ICIxNTY4OTk4NzUzMDc3LTAwMSIsICJtZCI6ICJob2xkaW5nIHBsdWdpbnMgdGhhdCBzaG91bGQgbm90IGJlIGF1dG9tYXRpY2FsbHkgYWRkZWQgdG8gdGhlIHJ1bnRpbWVwYXRoLlxuICBcblRvIGFkZCB0aGVtLCBydW5cbmBgYHZpbVxuOnBhY2thZGQge3NvbWUgcGFja2FnZX1cbmBgYFxuIn0=---->"
"<div id=""category""></div> <div id=""tags"" style=""visibility:hidden;"">vim</div> (FZF)<div><br /></div><div><b>&lt;C-t&gt;</b></div>  <script>   var tagInnerHTML = document.getElementById(""tags"").innerHTML;    var tags = tagInnerHTML.split("" "");    for (var i = 0; i < tags.length; i++) {     const tag = tags[i];     var height = 70;          var imgMappings = {       bash: {         imgSrc: ""_Gnu-bash-logo.svg.png""       },       vim: {         imgSrc: ""_Vimlogo.svg""       },       nvim: {         imgSrc: ""_nvim.jpeg""       }     }      var imgSrc = imgMappings[tag].imgSrc;     if (typeof imgSrc !== undefined) {        document.getElementById(""category"").innerHTML =         '<img src\=""' +         imgSrc +         '""/ height=""' +         height +         '"" />';       break;     }   }  </script>"	(FZF)<div><br /></div><div>Tab split</div>
"<div id=""category""></div> <div id=""tags"" style=""visibility:hidden;"">vim</div> (FZF)<div><br /></div><div><b>&lt;C-x&gt;</b></div>  <script>   var tagInnerHTML = document.getElementById(""tags"").innerHTML;    var tags = tagInnerHTML.split("" "");    for (var i = 0; i < tags.length; i++) {     const tag = tags[i];     var height = 70;          var imgMappings = {       bash: {         imgSrc: ""_Gnu-bash-logo.svg.png""       },       vim: {         imgSrc: ""_Vimlogo.svg""       },       nvim: {         imgSrc: ""_nvim.jpeg""       }     }      var imgSrc = imgMappings[tag].imgSrc;     if (typeof imgSrc !== undefined) {        document.getElementById(""category"").innerHTML =         '<img src\=""' +         imgSrc +         '""/ height=""' +         height +         '"" />';       break;     }   }  </script>"	(FZF)<div><br /></div><div>Split selection</div>
"<div id=""category""></div> <div id=""tags"" style=""visibility:hidden;"">vim</div> (FZF)<div><br /></div><div><b>&lt;C-v&gt;</b></div>  <script>   var tagInnerHTML = document.getElementById(""tags"").innerHTML;    var tags = tagInnerHTML.split("" "");    for (var i = 0; i < tags.length; i++) {     const tag = tags[i];     var height = 70;          var imgMappings = {       bash: {         imgSrc: ""_Gnu-bash-logo.svg.png""       },       vim: {         imgSrc: ""_Vimlogo.svg""       },       nvim: {         imgSrc: ""_nvim.jpeg""       }     }      var imgSrc = imgMappings[tag].imgSrc;     if (typeof imgSrc !== undefined) {        document.getElementById(""category"").innerHTML =         '<img src\=""' +         imgSrc +         '""/ height=""' +         height +         '"" />';       break;     }   }  </script>"	(FZF)<div><br /></div><div>Alternate split selected</div>
"<div id=""category""></div> <div id=""tags"" style=""visibility:hidden;"">vim</div> (FZF)<div><br /></div><div>Tab split</div>  <script>   var tagInnerHTML = document.getElementById(""tags"").innerHTML;    var tags = tagInnerHTML.split("" "");    for (var i = 0; i < tags.length; i++) {     const tag = tags[i];     var height = 70;          var imgMappings = {       bash: {         imgSrc: ""_Gnu-bash-logo.svg.png""       },       vim: {         imgSrc: ""_Vimlogo.svg""       },       nvim: {         imgSrc: ""_nvim.jpeg""       }     }      var imgSrc = imgMappings[tag].imgSrc;     if (typeof imgSrc !== undefined) {        document.getElementById(""category"").innerHTML =         '<img src\=""' +         imgSrc +         '""/ height=""' +         height +         '"" />';       break;     }   }  </script>"	(FZF)<div><br /></div><div><b>&lt;C-t&gt;</b></div>
"<div id=""category""></div> <div id=""tags"" style=""visibility:hidden;"">vim</div> (FZF)<div><br /></div><div>Split selection</div>  <script>   var tagInnerHTML = document.getElementById(""tags"").innerHTML;    var tags = tagInnerHTML.split("" "");    for (var i = 0; i < tags.length; i++) {     const tag = tags[i];     var height = 70;          var imgMappings = {       bash: {         imgSrc: ""_Gnu-bash-logo.svg.png""       },       vim: {         imgSrc: ""_Vimlogo.svg""       },       nvim: {         imgSrc: ""_nvim.jpeg""       }     }      var imgSrc = imgMappings[tag].imgSrc;     if (typeof imgSrc !== undefined) {        document.getElementById(""category"").innerHTML =         '<img src\=""' +         imgSrc +         '""/ height=""' +         height +         '"" />';       break;     }   }  </script>"	(FZF)<div><br /></div><div><b>&lt;C-x&gt;</b></div>
"<div id=""category""></div> <div id=""tags"" style=""visibility:hidden;"">vim</div> (FZF)<div><br /></div><div>Alternate split selected</div>  <script>   var tagInnerHTML = document.getElementById(""tags"").innerHTML;    var tags = tagInnerHTML.split("" "");    for (var i = 0; i < tags.length; i++) {     const tag = tags[i];     var height = 70;          var imgMappings = {       bash: {         imgSrc: ""_Gnu-bash-logo.svg.png""       },       vim: {         imgSrc: ""_Vimlogo.svg""       },       nvim: {         imgSrc: ""_nvim.jpeg""       }     }      var imgSrc = imgMappings[tag].imgSrc;     if (typeof imgSrc !== undefined) {        document.getElementById(""category"").innerHTML =         '<img src\=""' +         imgSrc +         '""/ height=""' +         height +         '"" />';       break;     }   }  </script>"	(FZF)<div><br /></div><div><b>&lt;C-v&gt;</b></div>
"<div id=""category""></div> <div id=""tags"" style=""visibility:hidden;"">vim</div> <div>(FZF)</div><div style=""font-weight: bold; ""><b><br /></b></div><b>:Buffers</b>  <script>   var tagInnerHTML = document.getElementById(""tags"").innerHTML;    var tags = tagInnerHTML.split("" "");    for (var i = 0; i < tags.length; i++) {     const tag = tags[i];     var height = 70;          var imgMappings = {       bash: {         imgSrc: ""_Gnu-bash-logo.svg.png""       },       vim: {         imgSrc: ""_Vimlogo.svg""       },       nvim: {         imgSrc: ""_nvim.jpeg""       }     }      var imgSrc = imgMappings[tag].imgSrc;     if (typeof imgSrc !== undefined) {        document.getElementById(""category"").innerHTML =         '<img src\=""' +         imgSrc +         '""/ height=""' +         height +         '"" />';       break;     }   }  </script>"	"<div>(FZF)</div><div style=""font-weight: bold; ""><b><br /></b></div><div>Search open buffers</div><b></b>"
"<div id=""category""></div> <div id=""tags"" style=""visibility:hidden;"">vim</div> <div>(FZF)</div><div style=""font-weight: bold; ""><b><br /></b></div><div>Search open buffers</div><b></b>  <script>   var tagInnerHTML = document.getElementById(""tags"").innerHTML;    var tags = tagInnerHTML.split("" "");    for (var i = 0; i < tags.length; i++) {     const tag = tags[i];     var height = 70;          var imgMappings = {       bash: {         imgSrc: ""_Gnu-bash-logo.svg.png""       },       vim: {         imgSrc: ""_Vimlogo.svg""       },       nvim: {         imgSrc: ""_nvim.jpeg""       }     }      var imgSrc = imgMappings[tag].imgSrc;     if (typeof imgSrc !== undefined) {        document.getElementById(""category"").innerHTML =         '<img src\=""' +         imgSrc +         '""/ height=""' +         height +         '"" />';       break;     }   }  </script>"	"<div>(FZF)</div><div style=""font-weight: bold; ""><b><br /></b></div><b>:Buffers</b>"
"<div id=""category""></div> <div id=""tags"" style=""visibility:hidden;"">vim</div> <div>(FZF)</div><div style=""font-weight: bold; ""><b><br /></b></div><b>:Lines</b>  <script>   var tagInnerHTML = document.getElementById(""tags"").innerHTML;    var tags = tagInnerHTML.split("" "");    for (var i = 0; i < tags.length; i++) {     const tag = tags[i];     var height = 70;          var imgMappings = {       bash: {         imgSrc: ""_Gnu-bash-logo.svg.png""       },       vim: {         imgSrc: ""_Vimlogo.svg""       },       nvim: {         imgSrc: ""_nvim.jpeg""       }     }      var imgSrc = imgMappings[tag].imgSrc;     if (typeof imgSrc !== undefined) {        document.getElementById(""category"").innerHTML =         '<img src\=""' +         imgSrc +         '""/ height=""' +         height +         '"" />';       break;     }   }  </script>"	"<div>(FZF)</div><div style=""font-weight: bold; ""><b><br /></b></div>Search lines in loaded buffers"
"<div id=""category""></div> <div id=""tags"" style=""visibility:hidden;"">vim</div> <div>(FZF)</div><div style=""font-weight: bold; ""><b><br /></b></div>Search lines in loaded buffers  <script>   var tagInnerHTML = document.getElementById(""tags"").innerHTML;    var tags = tagInnerHTML.split("" "");    for (var i = 0; i < tags.length; i++) {     const tag = tags[i];     var height = 70;          var imgMappings = {       bash: {         imgSrc: ""_Gnu-bash-logo.svg.png""       },       vim: {         imgSrc: ""_Vimlogo.svg""       },       nvim: {         imgSrc: ""_nvim.jpeg""       }     }      var imgSrc = imgMappings[tag].imgSrc;     if (typeof imgSrc !== undefined) {        document.getElementById(""category"").innerHTML =         '<img src\=""' +         imgSrc +         '""/ height=""' +         height +         '"" />';       break;     }   }  </script>"	"<div>(FZF)</div><div style=""font-weight: bold; ""><b><br /></b></div><b>:Lines</b>"
"<div id=""category""></div> <div id=""tags"" style=""visibility:hidden;"">vim</div> <div>(FZF)</div><div style=""font-weight: bold; ""><b><br /></b></div><b>:BLines</b>  <script>   var tagInnerHTML = document.getElementById(""tags"").innerHTML;    var tags = tagInnerHTML.split("" "");    for (var i = 0; i < tags.length; i++) {     const tag = tags[i];     var height = 70;          var imgMappings = {       bash: {         imgSrc: ""_Gnu-bash-logo.svg.png""       },       vim: {         imgSrc: ""_Vimlogo.svg""       },       nvim: {         imgSrc: ""_nvim.jpeg""       }     }      var imgSrc = imgMappings[tag].imgSrc;     if (typeof imgSrc !== undefined) {        document.getElementById(""category"").innerHTML =         '<img src\=""' +         imgSrc +         '""/ height=""' +         height +         '"" />';       break;     }   }  </script>"	"<div>(FZF)</div><div style=""font-weight: bold; ""><b><br /></b></div>Search lines in current buffer"
"<div id=""category""></div> <div id=""tags"" style=""visibility:hidden;"">vim</div> <div>(FZF)</div><div style=""font-weight: bold; ""><b><br /></b></div>Search lines in current buffer  <script>   var tagInnerHTML = document.getElementById(""tags"").innerHTML;    var tags = tagInnerHTML.split("" "");    for (var i = 0; i < tags.length; i++) {     const tag = tags[i];     var height = 70;          var imgMappings = {       bash: {         imgSrc: ""_Gnu-bash-logo.svg.png""       },       vim: {         imgSrc: ""_Vimlogo.svg""       },       nvim: {         imgSrc: ""_nvim.jpeg""       }     }      var imgSrc = imgMappings[tag].imgSrc;     if (typeof imgSrc !== undefined) {        document.getElementById(""category"").innerHTML =         '<img src\=""' +         imgSrc +         '""/ height=""' +         height +         '"" />';       break;     }   }  </script>"	"<div>(FZF)</div><div style=""font-weight: bold; ""><b><br /></b></div><b>:BLines</b>"
"<div id=""category""></div> <div id=""tags"" style=""visibility:hidden;"">vim</div> <div>(FZF)</div><div style=""font-weight: bold; ""><b><br /></b></div>Search Tags in project  <script>   var tagInnerHTML = document.getElementById(""tags"").innerHTML;    var tags = tagInnerHTML.split("" "");    for (var i = 0; i < tags.length; i++) {     const tag = tags[i];     var height = 70;          var imgMappings = {       bash: {         imgSrc: ""_Gnu-bash-logo.svg.png""       },       vim: {         imgSrc: ""_Vimlogo.svg""       },       nvim: {         imgSrc: ""_nvim.jpeg""       }     }      var imgSrc = imgMappings[tag].imgSrc;     if (typeof imgSrc !== undefined) {        document.getElementById(""category"").innerHTML =         '<img src\=""' +         imgSrc +         '""/ height=""' +         height +         '"" />';       break;     }   }  </script>"	"<div>(FZF)</div><div style=""font-weight: bold; ""><b><br /></b></div><b>:Tags</b>"
"<div id=""category""></div> <div id=""tags"" style=""visibility:hidden;"">vim</div> <div>(FZF)</div><div style=""font-weight: bold; ""><b><br /></b></div><b>:Tags</b>  <script>   var tagInnerHTML = document.getElementById(""tags"").innerHTML;    var tags = tagInnerHTML.split("" "");    for (var i = 0; i < tags.length; i++) {     const tag = tags[i];     var height = 70;          var imgMappings = {       bash: {         imgSrc: ""_Gnu-bash-logo.svg.png""       },       vim: {         imgSrc: ""_Vimlogo.svg""       },       nvim: {         imgSrc: ""_nvim.jpeg""       }     }      var imgSrc = imgMappings[tag].imgSrc;     if (typeof imgSrc !== undefined) {        document.getElementById(""category"").innerHTML =         '<img src\=""' +         imgSrc +         '""/ height=""' +         height +         '"" />';       break;     }   }  </script>"	"<div>(FZF)</div><div style=""font-weight: bold; ""><b><br /></b></div>Search Tags in project"
"<div id=""category""></div> <div id=""tags"" style=""visibility:hidden;"">vim</div> <div>(FZF)</div><div style=""font-weight: bold; ""><b><br /></b></div><b>:Commands</b>  <script>   var tagInnerHTML = document.getElementById(""tags"").innerHTML;    var tags = tagInnerHTML.split("" "");    for (var i = 0; i < tags.length; i++) {     const tag = tags[i];     var height = 70;          var imgMappings = {       bash: {         imgSrc: ""_Gnu-bash-logo.svg.png""       },       vim: {         imgSrc: ""_Vimlogo.svg""       },       nvim: {         imgSrc: ""_nvim.jpeg""       }     }      var imgSrc = imgMappings[tag].imgSrc;     if (typeof imgSrc !== undefined) {        document.getElementById(""category"").innerHTML =         '<img src\=""' +         imgSrc +         '""/ height=""' +         height +         '"" />';       break;     }   }  </script>"	"<div>(FZF)</div><div style=""font-weight: bold; ""><b><br /></b></div>Search commands"
"<div id=""category""></div> <div id=""tags"" style=""visibility:hidden;"">vim</div> <div>(FZF)</div><div style=""font-weight: bold; ""><b><br /></b></div>Search commands  <script>   var tagInnerHTML = document.getElementById(""tags"").innerHTML;    var tags = tagInnerHTML.split("" "");    for (var i = 0; i < tags.length; i++) {     const tag = tags[i];     var height = 70;          var imgMappings = {       bash: {         imgSrc: ""_Gnu-bash-logo.svg.png""       },       vim: {         imgSrc: ""_Vimlogo.svg""       },       nvim: {         imgSrc: ""_nvim.jpeg""       }     }      var imgSrc = imgMappings[tag].imgSrc;     if (typeof imgSrc !== undefined) {        document.getElementById(""category"").innerHTML =         '<img src\=""' +         imgSrc +         '""/ height=""' +         height +         '"" />';       break;     }   }  </script>"	"<div>(FZF)</div><div style=""font-weight: bold; ""><b><br /></b></div><b>:Commands</b>"
"<div id=""category""></div> <div id=""tags"" style=""visibility:hidden;"">vim</div> The&nbsp;Projectionist plugin...  <script>   var tagInnerHTML = document.getElementById(""tags"").innerHTML;    var tags = tagInnerHTML.split("" "");    for (var i = 0; i < tags.length; i++) {     const tag = tags[i];     var height = 70;          var imgMappings = {       bash: {         imgSrc: ""_Gnu-bash-logo.svg.png""       },       vim: {         imgSrc: ""_Vimlogo.svg""       },       nvim: {         imgSrc: ""_nvim.jpeg""       }     }      var imgSrc = imgMappings[tag].imgSrc;     if (typeof imgSrc !== undefined) {        document.getElementById(""category"").innerHTML =         '<img src\=""' +         imgSrc +         '""/ height=""' +         height +         '"" />';       break;     }   }  </script>"	"<div>(Very cool :))</div><div><br /></div>allows us to categorize files in a project by a semantic group, such as main, model, adapter, serializer, or <i>any metadata we want</i>, like linters&nbsp;etc.&nbsp;so that we can switch between various codebases quickly without too much mental context searching.<div><br /></div><div>(note that there are some metadata that have special meaning already, like path, male, dispatch, start, type, alternate)<br /><div><br /></div><div><i>It also lets us define where alternate files that represent the ""alternate"" version of a file lie so we can switch between them quickly, such as a component, and the code that tests that component.</i></div></div>"
"<div id=""category""></div> <div id=""tags"" style=""visibility:hidden;"">vim</div> The Dispatch plugin is...  <script>   var tagInnerHTML = document.getElementById(""tags"").innerHTML;    var tags = tagInnerHTML.split("" "");    for (var i = 0; i < tags.length; i++) {     const tag = tags[i];     var height = 70;          var imgMappings = {       bash: {         imgSrc: ""_Gnu-bash-logo.svg.png""       },       vim: {         imgSrc: ""_Vimlogo.svg""       },       nvim: {         imgSrc: ""_nvim.jpeg""       }     }      var imgSrc = imgMappings[tag].imgSrc;     if (typeof imgSrc !== undefined) {        document.getElementById(""category"").innerHTML =         '<img src\=""' +         imgSrc +         '""/ height=""' +         height +         '"" />';       break;     }   }  </script>"	A plugin that allows you to run <b>:make</b>&nbsp;asynchronously.<div><br /></div><div>It also</div><div>- automatically infers the compiler based on what you provide <b>:Dispatch</b>&nbsp;(looks through each makeprg of each compiler plugin). It does not change the makeprg or errorformat settings, so <b>:make</b>&nbsp;will not be affected.</div><div><br /></div><div>- Allows one to associate different commands with different compilers (to parse output)</div><div><br /></div><div>- Have a default dispatch.</div>
"<div id=""category""></div> <div id=""tags"" style=""visibility:hidden;"">vim</div> The Grepper plugin...  <script>   var tagInnerHTML = document.getElementById(""tags"").innerHTML;    var tags = tagInnerHTML.split("" "");    for (var i = 0; i < tags.length; i++) {     const tag = tags[i];     var height = 70;          var imgMappings = {       bash: {         imgSrc: ""_Gnu-bash-logo.svg.png""       },       vim: {         imgSrc: ""_Vimlogo.svg""       },       nvim: {         imgSrc: ""_nvim.jpeg""       }     }      var imgSrc = imgMappings[tag].imgSrc;     if (typeof imgSrc !== undefined) {        document.getElementById(""category"").innerHTML =         '<img src\=""' +         imgSrc +         '""/ height=""' +         height +         '"" />';       break;     }   }  </script>"	allows us to run traditional vim :grep asynchronously<div><br /></div><div>It's also a very general plugin, allowing us to use any tool to grep, should we configure it to</div>
"<div id=""category""></div> <div id=""tags"" style=""visibility:hidden;"">vim</div> The vim-test plugin allows one to...  <script>   var tagInnerHTML = document.getElementById(""tags"").innerHTML;    var tags = tagInnerHTML.split("" "");    for (var i = 0; i < tags.length; i++) {     const tag = tags[i];     var height = 70;          var imgMappings = {       bash: {         imgSrc: ""_Gnu-bash-logo.svg.png""       },       vim: {         imgSrc: ""_Vimlogo.svg""       },       nvim: {         imgSrc: ""_nvim.jpeg""       }     }      var imgSrc = imgMappings[tag].imgSrc;     if (typeof imgSrc !== undefined) {        document.getElementById(""category"").innerHTML =         '<img src\=""' +         imgSrc +         '""/ height=""' +         height +         '"" />';       break;     }   }  </script>"	Execute tests at various levels of granularity, and use quickfix to jump directly to a line where an error originated.<div><br /></div><div><i>A lot of it works with zero configuration.</i></div>
"<div id=""category""></div> <div id=""tags"" style=""visibility:hidden;"">vim</div> To use vim-test asynchronously...  <script>   var tagInnerHTML = document.getElementById(""tags"").innerHTML;    var tags = tagInnerHTML.split("" "");    for (var i = 0; i < tags.length; i++) {     const tag = tags[i];     var height = 70;          var imgMappings = {       bash: {         imgSrc: ""_Gnu-bash-logo.svg.png""       },       vim: {         imgSrc: ""_Vimlogo.svg""       },       nvim: {         imgSrc: ""_nvim.jpeg""       }     }      var imgSrc = imgMappings[tag].imgSrc;     if (typeof imgSrc !== undefined) {        document.getElementById(""category"").innerHTML =         '<img src\=""' +         imgSrc +         '""/ height=""' +         height +         '"" />';       break;     }   }  </script>"	"<p>we have to change the test-runnner's strategy to use an asynchronous one.</p> <p>e.g.</p> <div class=""codehilite"" style=""background: #f8f8f8"" align=""left""><pre style=""line-height: 125%""><span style=""color: #204a87;font-weight: bold"">let</span> test#strategy <span style=""color: #000000; font-weight: bold"">=</span> <span style=""color: #4e9a06"">""dispatch""</span> </pre></div><!----SBAdata:eyJpc2NvbnZlcnRlZCI6ICJUcnVlIiwgImxhc3Rtb2RpZmllZCI6IDE1NjkwMDgyMDUsICJpZCI6ICIxNTY5MDA3ODYzNTQxLTAwMSIsICJtZCI6ICJ3ZSBoYXZlIHRvIGNoYW5nZSB0aGUgdGVzdC1ydW5ubmVyJmFwb3M7cyBzdHJhdGVneSB0byB1c2UgYW4gYXN5bmNocm9ub3VzIG9uZS5cbiAgXG5lLmcuXG4gIFxuYGBgdmltXG5sZXQgdGVzdCNzdHJhdGVneSA9ICZxdW90O2Rpc3BhdGNoJnF1b3Q7XG5gYGBcbiJ9---->"
"<div id=""category""></div> <div id=""tags"" style=""visibility:hidden;"">nvim</div> <b>tnoremap</b>  <script>   var tagInnerHTML = document.getElementById(""tags"").innerHTML;    var tags = tagInnerHTML.split("" "");    for (var i = 0; i < tags.length; i++) {     const tag = tags[i];     var height = 70;          var imgMappings = {       bash: {         imgSrc: ""_Gnu-bash-logo.svg.png""       },       vim: {         imgSrc: ""_Vimlogo.svg""       },       nvim: {         imgSrc: ""_nvim.jpeg""       }     }      var imgSrc = imgMappings[tag].imgSrc;     if (typeof imgSrc !== undefined) {        document.getElementById(""category"").innerHTML =         '<img src\=""' +         imgSrc +         '""/ height=""' +         height +         '"" />';       break;     }   }  </script>"	Create (nonrecursive) mappings for Terminal mode
"<div id=""category""></div> <div id=""tags"" style=""visibility:hidden;"">nvim</div> Create (nonrecursive) mappings for Terminal mode  <script>   var tagInnerHTML = document.getElementById(""tags"").innerHTML;    var tags = tagInnerHTML.split("" "");    for (var i = 0; i < tags.length; i++) {     const tag = tags[i];     var height = 70;          var imgMappings = {       bash: {         imgSrc: ""_Gnu-bash-logo.svg.png""       },       vim: {         imgSrc: ""_Vimlogo.svg""       },       nvim: {         imgSrc: ""_nvim.jpeg""       }     }      var imgSrc = imgMappings[tag].imgSrc;     if (typeof imgSrc !== undefined) {        document.getElementById(""category"").innerHTML =         '<img src\=""' +         imgSrc +         '""/ height=""' +         height +         '"" />';       break;     }   }  </script>"	<b>tnoremap</b>
"<div id=""category""></div> <div id=""tags"" style=""visibility:hidden;"">nvim</div> <p>Why might you want to do something like </p> <div class=""codehilite"" style=""background: #f8f8f8"" align=""left""><pre style=""line-height: 125%""><span style=""color: #000000;font-weight: bold"">:</span>terminal <span style=""color: #204a87; font-weight: bold"">cat</span> <span style=""color: #4e9a06"">/etc/</span>shells </pre></div> <p>instead of</p> <div class=""codehilite"" style=""background: #f8f8f8"" align=""left""><pre style=""line-height: 125%""><span style=""color: #000000; font-weight: bold"">!</span><span style=""color: #204a87; font-weight: bold"">cat</span> <span style=""color: #4e9a06"">/etc/</span>shells </pre></div><!----SBAdata:eyJpc2NvbnZlcnRlZCI6ICJUcnVlIiwgImxhc3Rtb2RpZmllZCI6IDE1NzMzMjUxNjEsICJpZCI6ICIxNTY5MDEzNjY4ODc4LTAwMCIsICJtZCI6ICJXaHkgbWlnaHQgeW91IHdhbnQgdG8gZG8gc29tZXRoaW5nIGxpa2UgXG4gIFxuYGBgdmltXG46dGVybWluYWwgY2F0IC9ldGMvc2hlbGxzXG5gYGBcbmluc3RlYWQgb2ZcbmBgYHZpbVxuIWNhdCAvZXRjL3NoZWxsc1xuYGBgXG4ifQ==---->  <script>   var tagInnerHTML = document.getElementById(""tags"").innerHTML;    var tags = tagInnerHTML.split("" "");    for (var i = 0; i < tags.length; i++) {     const tag = tags[i];     var height = 70;          var imgMappings = {       bash: {         imgSrc: ""_Gnu-bash-logo.svg.png""       },       vim: {         imgSrc: ""_Vimlogo.svg""       },       nvim: {         imgSrc: ""_nvim.jpeg""       }     }      var imgSrc = imgMappings[tag].imgSrc;     if (typeof imgSrc !== undefined) {        document.getElementById(""category"").innerHTML =         '<img src\=""' +         imgSrc +         '""/ height=""' +         height +         '"" />';       break;     }   }  </script>"	Can use normal vim commands in order to select / scroll / search text.<div><br /></div><div>It is much more flexible</div>
"<div id=""category""></div> <div id=""tags"" style=""visibility:hidden;"">nvim</div> When you open another buffer over a terminal buffer or ""quit"" it, it...  <script>   var tagInnerHTML = document.getElementById(""tags"").innerHTML;    var tags = tagInnerHTML.split("" "");    for (var i = 0; i < tags.length; i++) {     const tag = tags[i];     var height = 70;          var imgMappings = {       bash: {         imgSrc: ""_Gnu-bash-logo.svg.png""       },       vim: {         imgSrc: ""_Vimlogo.svg""       },       nvim: {         imgSrc: ""_nvim.jpeg""       }     }      var imgSrc = imgMappings[tag].imgSrc;     if (typeof imgSrc !== undefined) {        document.getElementById(""category"").innerHTML =         '<img src\=""' +         imgSrc +         '""/ height=""' +         height +         '"" />';       break;     }   }  </script>"	does not close.<div><br /></div><div>This can be useful to have a hidden terminal buffer for which you can send commands to occastional, like a web server.</div>
"<div id=""category""></div> <div id=""tags"" style=""visibility:hidden;"">nvim</div> Ways of stopping Terminal Buffer processes:  <script>   var tagInnerHTML = document.getElementById(""tags"").innerHTML;    var tags = tagInnerHTML.split("" "");    for (var i = 0; i < tags.length; i++) {     const tag = tags[i];     var height = 70;          var imgMappings = {       bash: {         imgSrc: ""_Gnu-bash-logo.svg.png""       },       vim: {         imgSrc: ""_Vimlogo.svg""       },       nvim: {         imgSrc: ""_nvim.jpeg""       }     }      var imgSrc = imgMappings[tag].imgSrc;     if (typeof imgSrc !== undefined) {        document.getElementById(""category"").innerHTML =         '<img src\=""' +         imgSrc +         '""/ height=""' +         height +         '"" />';       break;     }   }  </script>"	- Enter insert mode, press &lt;C-c&gt;<div>- Delete the terminal buffer using the <b>:bwipeout!</b>&nbsp;command</div><div>- shut neovim down</div>
"<div id=""category""></div> <div id=""tags"" style=""visibility:hidden;"">vim</div> The vim-tmux-navigator plugin...  <script>   var tagInnerHTML = document.getElementById(""tags"").innerHTML;    var tags = tagInnerHTML.split("" "");    for (var i = 0; i < tags.length; i++) {     const tag = tags[i];     var height = 70;          var imgMappings = {       bash: {         imgSrc: ""_Gnu-bash-logo.svg.png""       },       vim: {         imgSrc: ""_Vimlogo.svg""       },       nvim: {         imgSrc: ""_nvim.jpeg""       }     }      var imgSrc = imgMappings[tag].imgSrc;     if (typeof imgSrc !== undefined) {        document.getElementById(""category"").innerHTML =         '<img src\=""' +         imgSrc +         '""/ height=""' +         height +         '"" />';       break;     }   }  </script>"	Lets you use the same mappings for navigating Vim windows and tmux panes.
"<div id=""category""></div> <div id=""tags"" style=""visibility:hidden;"">nvim</div> When you use <b>p </b>in terminal mode....  <script>   var tagInnerHTML = document.getElementById(""tags"").innerHTML;    var tags = tagInnerHTML.split("" "");    for (var i = 0; i < tags.length; i++) {     const tag = tags[i];     var height = 70;          var imgMappings = {       bash: {         imgSrc: ""_Gnu-bash-logo.svg.png""       },       vim: {         imgSrc: ""_Vimlogo.svg""       },       nvim: {         imgSrc: ""_nvim.jpeg""       }     }      var imgSrc = imgMappings[tag].imgSrc;     if (typeof imgSrc !== undefined) {        document.getElementById(""category"").innerHTML =         '<img src\=""' +         imgSrc +         '""/ height=""' +         height +         '"" />';       break;     }   }  </script>"	It inserts text <i>at the location of the terminal cursor</i>, so it does not violate the nonmodifiable property of the terminal buffer.
"<div id=""category""></div> <div id=""tags"" style=""visibility:hidden;"">vim</div> Remember that if you want to jump to a file shown in the terminal buffer...  <script>   var tagInnerHTML = document.getElementById(""tags"").innerHTML;    var tags = tagInnerHTML.split("" "");    for (var i = 0; i < tags.length; i++) {     const tag = tags[i];     var height = 70;          var imgMappings = {       bash: {         imgSrc: ""_Gnu-bash-logo.svg.png""       },       vim: {         imgSrc: ""_Vimlogo.svg""       },       nvim: {         imgSrc: ""_nvim.jpeg""       }     }      var imgSrc = imgMappings[tag].imgSrc;     if (typeof imgSrc !== undefined) {        document.getElementById(""category"").innerHTML =         '<img src\=""' +         imgSrc +         '""/ height=""' +         height +         '"" />';       break;     }   }  </script>"	you can just do <b>gf</b>
"<div id=""category""></div> <div id=""tags"" style=""visibility:hidden;"">nvim</div> <b>:echo b:terminal_job_id</b>  <script>   var tagInnerHTML = document.getElementById(""tags"").innerHTML;    var tags = tagInnerHTML.split("" "");    for (var i = 0; i < tags.length; i++) {     const tag = tags[i];     var height = 70;          var imgMappings = {       bash: {         imgSrc: ""_Gnu-bash-logo.svg.png""       },       vim: {         imgSrc: ""_Vimlogo.svg""       },       nvim: {         imgSrc: ""_nvim.jpeg""       }     }      var imgSrc = imgMappings[tag].imgSrc;     if (typeof imgSrc !== undefined) {        document.getElementById(""category"").innerHTML =         '<img src\=""' +         imgSrc +         '""/ height=""' +         height +         '"" />';       break;     }   }  </script>"	Within the terminal buffer, find out the job_id that neovim uses to represent a terminal job.
"<div id=""category""></div> <div id=""tags"" style=""visibility:hidden;"">nvim</div> Within the terminal buffer, find out the job_id that neovim uses to represent a terminal job.  <script>   var tagInnerHTML = document.getElementById(""tags"").innerHTML;    var tags = tagInnerHTML.split("" "");    for (var i = 0; i < tags.length; i++) {     const tag = tags[i];     var height = 70;          var imgMappings = {       bash: {         imgSrc: ""_Gnu-bash-logo.svg.png""       },       vim: {         imgSrc: ""_Vimlogo.svg""       },       nvim: {         imgSrc: ""_nvim.jpeg""       }     }      var imgSrc = imgMappings[tag].imgSrc;     if (typeof imgSrc !== undefined) {        document.getElementById(""category"").innerHTML =         '<img src\=""' +         imgSrc +         '""/ height=""' +         height +         '"" />';       break;     }   }  </script>"	<b>:echo b:terminal_job_id</b>
"<div id=""category""></div> <div id=""tags"" style=""visibility:hidden;"">nvim</div> <b>:call jobsend(1, ""\&lt;C-c&gt;npm run server\&lt;CR&gt;"")</b>  <script>   var tagInnerHTML = document.getElementById(""tags"").innerHTML;    var tags = tagInnerHTML.split("" "");    for (var i = 0; i < tags.length; i++) {     const tag = tags[i];     var height = 70;          var imgMappings = {       bash: {         imgSrc: ""_Gnu-bash-logo.svg.png""       },       vim: {         imgSrc: ""_Vimlogo.svg""       },       nvim: {         imgSrc: ""_nvim.jpeg""       }     }      var imgSrc = imgMappings[tag].imgSrc;     if (typeof imgSrc !== undefined) {        document.getElementById(""category"").innerHTML =         '<img src\=""' +         imgSrc +         '""/ height=""' +         height +         '"" />';       break;     }   }  </script>"	"Send the text&nbsp;""\&lt;C-c&gt;npm run server\&lt;CR&gt;"" to the terminal buffer containing the job id 1."
"<div id=""category""></div> <div id=""tags"" style=""visibility:hidden;"">nvim</div> Send the text&nbsp;""\&lt;C-c&gt;npm run server\&lt;CR&gt;"" to the terminal buffer containing the job id 1.  <script>   var tagInnerHTML = document.getElementById(""tags"").innerHTML;    var tags = tagInnerHTML.split("" "");    for (var i = 0; i < tags.length; i++) {     const tag = tags[i];     var height = 70;          var imgMappings = {       bash: {         imgSrc: ""_Gnu-bash-logo.svg.png""       },       vim: {         imgSrc: ""_Vimlogo.svg""       },       nvim: {         imgSrc: ""_nvim.jpeg""       }     }      var imgSrc = imgMappings[tag].imgSrc;     if (typeof imgSrc !== undefined) {        document.getElementById(""category"").innerHTML =         '<img src\=""' +         imgSrc +         '""/ height=""' +         height +         '"" />';       break;     }   }  </script>"	"<b>:call jobsend(1, ""\&lt;C-c&gt;npm run server\&lt;CR&gt;"")</b>"
"<div id=""category""></div> <div id=""tags"" style=""visibility:hidden;"">nvim</div> To test if a process is running within a neovim instance...  <script>   var tagInnerHTML = document.getElementById(""tags"").innerHTML;    var tags = tagInnerHTML.split("" "");    for (var i = 0; i < tags.length; i++) {     const tag = tags[i];     var height = 70;          var imgMappings = {       bash: {         imgSrc: ""_Gnu-bash-logo.svg.png""       },       vim: {         imgSrc: ""_Vimlogo.svg""       },       nvim: {         imgSrc: ""_nvim.jpeg""       }     }      var imgSrc = imgMappings[tag].imgSrc;     if (typeof imgSrc !== undefined) {        document.getElementById(""category"").innerHTML =         '<img src\=""' +         imgSrc +         '""/ height=""' +         height +         '"" />';       break;     }   }  </script>"	check the `NVIM_LISTEN_ADDRESS` environment variable.
"<div id=""category""></div> <div id=""tags"" style=""visibility:hidden;"">nvim</div> The neovim-remote program...  <script>   var tagInnerHTML = document.getElementById(""tags"").innerHTML;    var tags = tagInnerHTML.split("" "");    for (var i = 0; i < tags.length; i++) {     const tag = tags[i];     var height = 70;          var imgMappings = {       bash: {         imgSrc: ""_Gnu-bash-logo.svg.png""       },       vim: {         imgSrc: ""_Vimlogo.svg""       },       nvim: {         imgSrc: ""_nvim.jpeg""       }     }      var imgSrc = imgMappings[tag].imgSrc;     if (typeof imgSrc !== undefined) {        document.getElementById(""category"").innerHTML =         '<img src\=""' +         imgSrc +         '""/ height=""' +         height +         '"" />';       break;     }   }  </script>"	<div>Command is <b>nvr</b>.</div><div><br /></div>Allows you to control a remote neovim process.<div><br /></div><div>Its very useful for using the current neovim instance to edit a file from a terminal buffer.</div>
"<div id=""category""></div> <div id=""tags"" style=""visibility:hidden;"">nvim</div> <div>(run on command line)</div><div style=""font-weight: bold; ""><b><br /></b></div><b>nvr </b>&lt;file&gt;  <script>   var tagInnerHTML = document.getElementById(""tags"").innerHTML;    var tags = tagInnerHTML.split("" "");    for (var i = 0; i < tags.length; i++) {     const tag = tags[i];     var height = 70;          var imgMappings = {       bash: {         imgSrc: ""_Gnu-bash-logo.svg.png""       },       vim: {         imgSrc: ""_Vimlogo.svg""       },       nvim: {         imgSrc: ""_nvim.jpeg""       }     }      var imgSrc = imgMappings[tag].imgSrc;     if (typeof imgSrc !== undefined) {        document.getElementById(""category"").innerHTML =         '<img src\=""' +         imgSrc +         '""/ height=""' +         height +         '"" />';       break;     }   }  </script>"	"<div>(run on command line)</div><div style=""font-weight: bold; ""><b><br /></b></div><b></b>Open file using existing neovim instance in current window of current terminal buffer"
"<div id=""category""></div> <div id=""tags"" style=""visibility:hidden;"">nvim</div> <div>(run on command line)</div><div><br /></div><div>nvr -l &lt;file&gt;</div>  <script>   var tagInnerHTML = document.getElementById(""tags"").innerHTML;    var tags = tagInnerHTML.split("" "");    for (var i = 0; i < tags.length; i++) {     const tag = tags[i];     var height = 70;          var imgMappings = {       bash: {         imgSrc: ""_Gnu-bash-logo.svg.png""       },       vim: {         imgSrc: ""_Vimlogo.svg""       },       nvim: {         imgSrc: ""_nvim.jpeg""       }     }      var imgSrc = imgMappings[tag].imgSrc;     if (typeof imgSrc !== undefined) {        document.getElementById(""category"").innerHTML =         '<img src\=""' +         imgSrc +         '""/ height=""' +         height +         '"" />';       break;     }   }  </script>"	<div>(run on command line)</div><div><br /></div><div>Open file in the last active window, using existing neovim instance in current window of current terminal buffer</div>
"<div id=""category""></div> <div id=""tags"" style=""visibility:hidden;"">nvim</div> <div>(run on command line)</div><div><br /></div><div>nvr -o [&lt;file&gt; ...]</div>  <script>   var tagInnerHTML = document.getElementById(""tags"").innerHTML;    var tags = tagInnerHTML.split("" "");    for (var i = 0; i < tags.length; i++) {     const tag = tags[i];     var height = 70;          var imgMappings = {       bash: {         imgSrc: ""_Gnu-bash-logo.svg.png""       },       vim: {         imgSrc: ""_Vimlogo.svg""       },       nvim: {         imgSrc: ""_nvim.jpeg""       }     }      var imgSrc = imgMappings[tag].imgSrc;     if (typeof imgSrc !== undefined) {        document.getElementById(""category"").innerHTML =         '<img src\=""' +         imgSrc +         '""/ height=""' +         height +         '"" />';       break;     }   }  </script>"	<div>(run on command line)</div><div><br /></div><div>Open file(s) via :split, using existing neovim instance in current window of current terminal buffer</div><div><br /></div>
"<div id=""category""></div> <div id=""tags"" style=""visibility:hidden;"">nvim</div> <div>(run on command line)</div><div><br /></div><div>nvr -O [&lt;file&gt; ...]</div>  <script>   var tagInnerHTML = document.getElementById(""tags"").innerHTML;    var tags = tagInnerHTML.split("" "");    for (var i = 0; i < tags.length; i++) {     const tag = tags[i];     var height = 70;          var imgMappings = {       bash: {         imgSrc: ""_Gnu-bash-logo.svg.png""       },       vim: {         imgSrc: ""_Vimlogo.svg""       },       nvim: {         imgSrc: ""_nvim.jpeg""       }     }      var imgSrc = imgMappings[tag].imgSrc;     if (typeof imgSrc !== undefined) {        document.getElementById(""category"").innerHTML =         '<img src\=""' +         imgSrc +         '""/ height=""' +         height +         '"" />';       break;     }   }  </script>"	<div>(run on command line)</div><div><br /></div><div>Open file(s) via :vsplit, using existing neovim instance in current window of current terminal buffer</div>
"<div id=""category""></div> <div id=""tags"" style=""visibility:hidden;"">nvim</div> <div>(run on command line)</div><div><br /></div><div>nvr -p [&lt;file&gt; ...]</div>  <script>   var tagInnerHTML = document.getElementById(""tags"").innerHTML;    var tags = tagInnerHTML.split("" "");    for (var i = 0; i < tags.length; i++) {     const tag = tags[i];     var height = 70;          var imgMappings = {       bash: {         imgSrc: ""_Gnu-bash-logo.svg.png""       },       vim: {         imgSrc: ""_Vimlogo.svg""       },       nvim: {         imgSrc: ""_nvim.jpeg""       }     }      var imgSrc = imgMappings[tag].imgSrc;     if (typeof imgSrc !== undefined) {        document.getElementById(""category"").innerHTML =         '<img src\=""' +         imgSrc +         '""/ height=""' +         height +         '"" />';       break;     }   }  </script>"	<div>(run on command line)</div><div><br /></div><div>Open file(s) via :tabedit, using existing neovim instance in current window of current terminal buffer</div>
"<div id=""category""></div> <div id=""tags"" style=""visibility:hidden;"">nvim</div> <b>nvr --remote-wait</b>  <script>   var tagInnerHTML = document.getElementById(""tags"").innerHTML;    var tags = tagInnerHTML.split("" "");    for (var i = 0; i < tags.length; i++) {     const tag = tags[i];     var height = 70;          var imgMappings = {       bash: {         imgSrc: ""_Gnu-bash-logo.svg.png""       },       vim: {         imgSrc: ""_Vimlogo.svg""       },       nvim: {         imgSrc: ""_nvim.jpeg""       }     }      var imgSrc = imgMappings[tag].imgSrc;     if (typeof imgSrc !== undefined) {        document.getElementById(""category"").innerHTML =         '<img src\=""' +         imgSrc +         '""/ height=""' +         height +         '"" />';       break;     }   }  </script>"	instruct <b>nvr</b>&nbsp;to block until the (nvim) buffer created by the external program is deleted.<div><br /></div><div>Adding <b>--bufhidden=wipe</b></div><div><b><br /></b></div><div>will kill it if the buffer is hidden as well.</div>
"<div id=""category""></div> <div id=""tags"" style=""visibility:hidden;"">nvim</div> instruct <b>nvr</b>&nbsp;to block until the (nvim) buffer created by the external program is deleted.<div><br /></div><div>Adding <b>--bufhidden=wipe</b></div><div><b><br /></b></div><div>will kill it if the buffer is hidden as well.</div>  <script>   var tagInnerHTML = document.getElementById(""tags"").innerHTML;    var tags = tagInnerHTML.split("" "");    for (var i = 0; i < tags.length; i++) {     const tag = tags[i];     var height = 70;          var imgMappings = {       bash: {         imgSrc: ""_Gnu-bash-logo.svg.png""       },       vim: {         imgSrc: ""_Vimlogo.svg""       },       nvim: {         imgSrc: ""_nvim.jpeg""       }     }      var imgSrc = imgMappings[tag].imgSrc;     if (typeof imgSrc !== undefined) {        document.getElementById(""category"").innerHTML =         '<img src\=""' +         imgSrc +         '""/ height=""' +         height +         '"" />';       break;     }   }  </script>"	<b>nvr --remote-wait</b>
"<div id=""category""></div> <div id=""tags"" style=""visibility:hidden;"">vim</div> The Obsession plugin...  <script>   var tagInnerHTML = document.getElementById(""tags"").innerHTML;    var tags = tagInnerHTML.split("" "");    for (var i = 0; i < tags.length; i++) {     const tag = tags[i];     var height = 70;          var imgMappings = {       bash: {         imgSrc: ""_Gnu-bash-logo.svg.png""       },       vim: {         imgSrc: ""_Vimlogo.svg""       },       nvim: {         imgSrc: ""_nvim.jpeg""       }     }      var imgSrc = imgMappings[tag].imgSrc;     if (typeof imgSrc !== undefined) {        document.getElementById(""category"").innerHTML =         '<img src\=""' +         imgSrc +         '""/ height=""' +         height +         '"" />';       break;     }   }  </script>"	allos you to save your session automatically
"<div id=""category""></div> <div id=""tags"" style=""visibility:hidden;"">vim</div> the 'sessionoptions' option....  <script>   var tagInnerHTML = document.getElementById(""tags"").innerHTML;    var tags = tagInnerHTML.split("" "");    for (var i = 0; i < tags.length; i++) {     const tag = tags[i];     var height = 70;          var imgMappings = {       bash: {         imgSrc: ""_Gnu-bash-logo.svg.png""       },       vim: {         imgSrc: ""_Vimlogo.svg""       },       nvim: {         imgSrc: ""_nvim.jpeg""       }     }      var imgSrc = imgMappings[tag].imgSrc;     if (typeof imgSrc !== undefined) {        document.getElementById(""category"").innerHTML =         '<img src\=""' +         imgSrc +         '""/ height=""' +         height +         '"" />';       break;     }   }  </script>"	specifies what will be recorded when you save a session.<div><br /></div><div>By default</div><div>- buffer list</div><div>- buffer names (but not numbers)</div><div>- windows recreated with same layout / sizing</div><div>- tab pages restored in the same order</div><div>- active window and cursor position are also recorded.</div>
"<div id=""category""></div> <div id=""tags"" style=""visibility:hidden;"">vim</div> The way that vim / neovim shares stuff &nbsp;command-line history, search history, register contents, mark locations ... between sesions is...  <script>   var tagInnerHTML = document.getElementById(""tags"").innerHTML;    var tags = tagInnerHTML.split("" "");    for (var i = 0; i < tags.length; i++) {     const tag = tags[i];     var height = 70;          var imgMappings = {       bash: {         imgSrc: ""_Gnu-bash-logo.svg.png""       },       vim: {         imgSrc: ""_Vimlogo.svg""       },       nvim: {         imgSrc: ""_nvim.jpeg""       }     }      var imgSrc = imgMappings[tag].imgSrc;     if (typeof imgSrc !== undefined) {        document.getElementById(""category"").innerHTML =         '<img src\=""' +         imgSrc +         '""/ height=""' +         height +         '"" />';       break;     }   }  </script>"	"in a session record.<div><br /></div><div>Vim uses a ""viminfo"" file</div><div>Neovim uses a ""shada"" (shared data) file</div>"
"<div id=""category""></div> <div id=""tags"" style=""visibility:hidden;"">vim</div> <b>set undofile</b>  <script>   var tagInnerHTML = document.getElementById(""tags"").innerHTML;    var tags = tagInnerHTML.split("" "");    for (var i = 0; i < tags.length; i++) {     const tag = tags[i];     var height = 70;          var imgMappings = {       bash: {         imgSrc: ""_Gnu-bash-logo.svg.png""       },       vim: {         imgSrc: ""_Vimlogo.svg""       },       nvim: {         imgSrc: ""_nvim.jpeg""       }     }      var imgSrc = imgMappings[tag].imgSrc;     if (typeof imgSrc !== undefined) {        document.getElementById(""category"").innerHTML =         '<img src\=""' +         imgSrc +         '""/ height=""' +         height +         '"" />';       break;     }   }  </script>"	Allows you to keep your undo history between sessions (:help persistent-undo).
"<div id=""category""></div> <div id=""tags"" style=""visibility:hidden;"">vim</div> Allows you to keep your undo history between sessions (:help persistent-undo).  <script>   var tagInnerHTML = document.getElementById(""tags"").innerHTML;    var tags = tagInnerHTML.split("" "");    for (var i = 0; i < tags.length; i++) {     const tag = tags[i];     var height = 70;          var imgMappings = {       bash: {         imgSrc: ""_Gnu-bash-logo.svg.png""       },       vim: {         imgSrc: ""_Vimlogo.svg""       },       nvim: {         imgSrc: ""_nvim.jpeg""       }     }      var imgSrc = imgMappings[tag].imgSrc;     if (typeof imgSrc !== undefined) {        document.getElementById(""category"").innerHTML =         '<img src\=""' +         imgSrc +         '""/ height=""' +         height +         '"" />';       break;     }   }  </script>"	<b>set undofile</b>
"<div id=""category""></div> <div id=""tags"" style=""visibility:hidden;"">vim</div> To prevent undofile from saving its undo history in the same directory (e.g. .some-file.tzt.un~)...  <script>   var tagInnerHTML = document.getElementById(""tags"").innerHTML;    var tags = tagInnerHTML.split("" "");    for (var i = 0; i < tags.length; i++) {     const tag = tags[i];     var height = 70;          var imgMappings = {       bash: {         imgSrc: ""_Gnu-bash-logo.svg.png""       },       vim: {         imgSrc: ""_Vimlogo.svg""       },       nvim: {         imgSrc: ""_nvim.jpeg""       }     }      var imgSrc = imgMappings[tag].imgSrc;     if (typeof imgSrc !== undefined) {        document.getElementById(""category"").innerHTML =         '<img src\=""' +         imgSrc +         '""/ height=""' +         height +         '"" />';       break;     }   }  </script>"	"<p>Specify the <code>undodir</code> option to specify a directory where your undo files will be saved. (neovim has ~/.config/nvim/undo) by default, but you need to create the folder.</p> <p>e.g.</p> <div class=""codehilite"" style=""background: #f8f8f8"" align=""left""><pre style=""line-height: 125%""><span style=""color: #204a87;font-weight: bold"">set</span> <span style=""color: #204a87"">undodir</span><span style=""color: #000000; font-weight: bold"">=~</span>/somefolder </pre></div><!----SBAdata:eyJpc2NvbnZlcnRlZCI6ICJUcnVlIiwgImxhc3Rtb2RpZmllZCI6IDE1NjkwMzExMjAsICJpZCI6ICIxNTY5MDMwODUyODA5LTAwMSIsICJtZCI6ICJTcGVjaWZ5IHRoZSBgdW5kb2RpcmAgb3B0aW9uIHRvIHNwZWNpZnkgYSBkaXJlY3Rvcnkgd2hlcmUgeW91ciB1bmRvIGZpbGVzIHdpbGwgYmUgc2F2ZWQuIChuZW92aW0gaGFzIH4vLmNvbmZpZy9udmltL3VuZG8pIGJ5IGRlZmF1bHQsIGJ1dCB5b3UgbmVlZCB0byBjcmVhdGUgdGhlIGZvbGRlci5cbiAgXG5lLmcuXG5gYGB2aW1cbnNldCB1bmRvZGlyPX4vc29tZWZvbGRlclxuYGBgXG4ifQ==---->"
"<div id=""category""></div> <div id=""tags"" style=""visibility:hidden;"">vim</div> <p>Sometimes its a good idea to set <code>noundofile</code> if...</p><!----SBAdata:eyJpc2NvbnZlcnRlZCI6ICJUcnVlIiwgImxhc3Rtb2RpZmllZCI6IDE1NjkwMzEzNDcsICJpZCI6ICIxNTY5MDMxMTIzNzM5LTAwMCIsICJtZCI6ICJTb21ldGltZXMgaXRzIGEgZ29vZCBpZGVhIHRvIHNldCBgbm91bmRvZmlsZWAgaWYuLi5cbiJ9---->  <script>   var tagInnerHTML = document.getElementById(""tags"").innerHTML;    var tags = tagInnerHTML.split("" "");    for (var i = 0; i < tags.length; i++) {     const tag = tags[i];     var height = 70;          var imgMappings = {       bash: {         imgSrc: ""_Gnu-bash-logo.svg.png""       },       vim: {         imgSrc: ""_Vimlogo.svg""       },       nvim: {         imgSrc: ""_nvim.jpeg""       }     }      var imgSrc = imgMappings[tag].imgSrc;     if (typeof imgSrc !== undefined) {        document.getElementById(""category"").innerHTML =         '<img src\=""' +         imgSrc +         '""/ height=""' +         height +         '"" />';       break;     }   }  </script>"	you need to type or do some things involving secrets like a password.
"<div id=""category""></div> <div id=""tags"" style=""visibility:hidden;"">nvim</div> If you want commands run in a terminal to be run again after a vim session is restored...  <script>   var tagInnerHTML = document.getElementById(""tags"").innerHTML;    var tags = tagInnerHTML.split("" "");    for (var i = 0; i < tags.length; i++) {     const tag = tags[i];     var height = 70;          var imgMappings = {       bash: {         imgSrc: ""_Gnu-bash-logo.svg.png""       },       vim: {         imgSrc: ""_Vimlogo.svg""       },       nvim: {         imgSrc: ""_nvim.jpeg""       }     }      var imgSrc = imgMappings[tag].imgSrc;     if (typeof imgSrc !== undefined) {        document.getElementById(""category"").innerHTML =         '<img src\=""' +         imgSrc +         '""/ height=""' +         height +         '"" />';       break;     }   }  </script>"	<p><strong>Method 1:</strong><br /> Do <code>:term {some command}</code> and not <code>:term&lt;enter insert mode&gt;commands</code></p> <p><strong>Method 2:</strong><br /> rename terminal buffer to <code>term://{commands you want run}</code> using <code>:file {name}</code></p><!----SBAdata:eyJpc2NvbnZlcnRlZCI6ICJUcnVlIiwgImxhc3Rtb2RpZmllZCI6IDE1NjkwMzMwMjcsICJpZCI6ICIxNTY5MDMxMzUwMzAyLTAwMSIsICJtZCI6ICIqKk1ldGhvZCAxOioqXG5EbyBgOnRlcm0ge3NvbWUgY29tbWFuZH1gIGFuZCBub3QgYDp0ZXJtJmx0O2VudGVyIGluc2VydCBtb2RlJmd0O2NvbW1hbmRzYFxuICBcbioqTWV0aG9kIDI6KipcbnJlbmFtZSB0ZXJtaW5hbCBidWZmZXIgdG8gYHRlcm06Ly97Y29tbWFuZHMgeW91IHdhbnQgcnVufWAgdXNpbmcgYDpmaWxlIHtuYW1lfWBcbiJ9---->
"<div id=""category""></div> <div id=""tags"" style=""visibility:hidden;"">vim</div> <b>:file </b>{name}  <script>   var tagInnerHTML = document.getElementById(""tags"").innerHTML;    var tags = tagInnerHTML.split("" "");    for (var i = 0; i < tags.length; i++) {     const tag = tags[i];     var height = 70;          var imgMappings = {       bash: {         imgSrc: ""_Gnu-bash-logo.svg.png""       },       vim: {         imgSrc: ""_Vimlogo.svg""       },       nvim: {         imgSrc: ""_nvim.jpeg""       }     }      var imgSrc = imgMappings[tag].imgSrc;     if (typeof imgSrc !== undefined) {        document.getElementById(""category"").innerHTML =         '<img src\=""' +         imgSrc +         '""/ height=""' +         height +         '"" />';       break;     }   }  </script>"	"Rename a buffer<div><br /></div><div>(useful for renaming a terminal buffer when saving/restoring sessions, or for starting to edit a copy of the current buffer (think ""saveas"") without immediately writing)</div>"
"<div id=""category""></div> <div id=""tags"" style=""visibility:hidden;"">vim</div> Rename a buffer<div><br /></div><div>(useful for renaming a terminal buffer when saving/restoring sessions, or for starting to edit a copy of the current buffer (think ""saveas"") without immediately writing)</div>  <script>   var tagInnerHTML = document.getElementById(""tags"").innerHTML;    var tags = tagInnerHTML.split("" "");    for (var i = 0; i < tags.length; i++) {     const tag = tags[i];     var height = 70;          var imgMappings = {       bash: {         imgSrc: ""_Gnu-bash-logo.svg.png""       },       vim: {         imgSrc: ""_Vimlogo.svg""       },       nvim: {         imgSrc: ""_nvim.jpeg""       }     }      var imgSrc = imgMappings[tag].imgSrc;     if (typeof imgSrc !== undefined) {        document.getElementById(""category"").innerHTML =         '<img src\=""' +         imgSrc +         '""/ height=""' +         height +         '"" />';       break;     }   }  </script>"	<b>:file </b>{name}
"<div id=""category""></div> <div id=""tags"" style=""visibility:hidden;"">vim</div> The vim-editorconfig plugin...  <script>   var tagInnerHTML = document.getElementById(""tags"").innerHTML;    var tags = tagInnerHTML.split("" "");    for (var i = 0; i < tags.length; i++) {     const tag = tags[i];     var height = 70;          var imgMappings = {       bash: {         imgSrc: ""_Gnu-bash-logo.svg.png""       },       vim: {         imgSrc: ""_Vimlogo.svg""       },       nvim: {         imgSrc: ""_nvim.jpeg""       }     }      var imgSrc = imgMappings[tag].imgSrc;     if (typeof imgSrc !== undefined) {        document.getElementById(""category"").innerHTML =         '<img src\=""' +         imgSrc +         '""/ height=""' +         height +         '"" />';       break;     }   }  </script>"	allows one to specify specific conventions for a project, like indentation size, indentation style, character encodings, etc. using an .editorconfig file (a de-facto standard in the industry).<div><br /></div><div>Will take precedence over any settings in vimrc</div>
